{
  "__type__": "cc.AnimationClip",
  "_name": "Indicator",
  "_objFlags": 0,
  "_native": "",
  "_duration": 0.9333333333333333,
  "sample": 30,
  "speed": 1,
  "wrapMode": 2,
  "curveData": {
    "comps": {
      "cc.Sprite": {
        "spriteFrame": [
          {
            "frame": 0,
            "value": {
              "__uuid__": "6d2ed189-7ad2-484c-a761-287e2ce6cb55"
            }
          },
          {
            "frame": 0.03333333333333333,
            "value": {
              "__uuid__": "471d1e47-2b52-4081-957f-ecdb30361b8c"
            }
          },
          {
            "frame": 0.06666666666666667,
            "value": {
              "__uuid__": "0a4c9546-de18-4ae3-80d3-e56cf7da43b4"
            }
          },
          {
            "frame": 0.1,
            "value": {
              "__uuid__": "0c7e1ad0-2deb-45e1-9a98-fbb45ff56566"
            }
          },
          {
            "frame": 0.13333333333333333,
            "value": {
              "__uuid__": "47954213-f4d9-492f-96cb-3ef4c7c9da29"
            }
          },
          {
            "frame": 0.16666666666666666,
            "value": {
              "__uuid__": "b7a69d8e-1b2a-40d2-87ff-4458b73626dd"
            }
          },
          {
            "frame": 0.2,
            "value": {
              "__uuid__": "8dcb6a07-ac3c-49de-9b9d-d6e261692073"
            }
          },
          {
            "frame": 0.23333333333333334,
            "value": {
              "__uuid__": "1ee23485-19e4-4220-b79c-33d3516691d6"
            }
          },
          {
            "frame": 0.26666666666666666,
            "value": {
              "__uuid__": "93de0605-f3be-44fa-8f43-189649ace998"
            }
          },
          {
            "frame": 0.3,
            "value": {
              "__uuid__": "9a7d8357-83cf-4f96-ae36-66862ae83a1d"
            }
          },
          {
            "frame": 0.3333333333333333,
            "value": {
              "__uuid__": "d59ff939-e8ce-4005-9d23-961dcac3d462"
            }
          },
          {
            "frame": 0.36666666666666664,
            "value": {
              "__uuid__": "3db7f121-acb6-4988-a24d-14c8fc95bdfd"
            }
          },
          {
            "frame": 0.4,
            "value": {
              "__uuid__": "8f28b353-9d65-4e56-b5c5-14b811b1c638"
            }
          },
          {
            "frame": 0.43333333333333335,
            "value": {
              "__uuid__": "f1b64a98-cb8f-4e99-aab3-bf00a5aadd50"
            }
          },
          {
            "frame": 0.4666666666666667,
            "value": {
              "__uuid__": "109cf529-7520-4ecf-8a88-e53130b596d1"
            }
          },
          {
            "frame": 0.5,
            "value": {
              "__uuid__": "6aee5940-a745-4e1f-9779-672f96920289"
            }
          },
          {
            "frame": 0.5333333333333333,
            "value": {
              "__uuid__": "d46af747-7816-4f29-9f7f-2d3866dc7100"
            }
          },
          {
            "frame": 0.5666666666666667,
            "value": {
              "__uuid__": "e7b6bd9c-6056-4496-8ad6-abc2e31f610e"
            }
          },
          {
            "frame": 0.6,
            "value": {
              "__uuid__": "3c5a5dac-800d-4200-8c52-be1ffa5dcdf9"
            }
          },
          {
            "frame": 0.6333333333333333,
            "value": {
              "__uuid__": "45391af9-80d9-45ef-bf97-fb4490eea7a6"
            }
          },
          {
            "frame": 0.6666666666666666,
            "value": {
              "__uuid__": "6233d792-ea85-4d50-84de-b65cf3eb0d1a"
            }
          },
          {
            "frame": 0.7,
            "value": {
              "__uuid__": "5b8b8fe6-4447-46a8-956d-efd866f2c633"
            }
          },
          {
            "frame": 0.7333333333333333,
            "value": {
              "__uuid__": "bc37aceb-9c36-4922-a298-fcff68313da3"
            }
          },
          {
            "frame": 0.7666666666666667,
            "value": {
              "__uuid__": "9f29a849-3281-4a1c-be39-97366e67d397"
            }
          },
          {
            "frame": 0.8,
            "value": {
              "__uuid__": "d2eb7b34-31a1-4ad1-a400-59f90b35bc40"
            }
          },
          {
            "frame": 0.8333333333333334,
            "value": {
              "__uuid__": "c5ca2c7c-d559-4b06-8258-224b7f56ed80"
            }
          },
          {
            "frame": 0.8666666666666667,
            "value": {
              "__uuid__": "33547375-95e9-4ef4-ae79-f1660daad29e"
            }
          },
          {
            "frame": 0.9,
            "value": {
              "__uuid__": "3f509245-4c5f-4571-b56c-977274c9f6fe"
            }
          }
        ]
      }
    }
  },
  "events": []
}