{
  "__type__": "cc.AnimationClip",
  "_name": "Lobby_combination",
  "_objFlags": 0,
  "_native": "",
  "_duration": 1.375,
  "sample": 24,
  "speed": 1,
  "wrapMode": 2,
  "curveData": {
    "comps": {
      "cc.Sprite": {
        "spriteFrame": [
          {
            "frame": 0,
            "value": {
              "__uuid__": "50e971d1-46ed-47f9-a352-16113dd6bddb"
            }
          },
          {
            "frame": 0.041666666666666664,
            "value": {
              "__uuid__": "0cb1482a-f3e6-4b35-93e5-90fc721877bb"
            }
          },
          {
            "frame": 0.08333333333333333,
            "value": {
              "__uuid__": "f95cfc24-19f3-4037-b1ec-99f377b73307"
            }
          },
          {
            "frame": 0.125,
            "value": {
              "__uuid__": "f18cf224-25de-401f-a89e-77cadaa007cb"
            }
          },
          {
            "frame": 0.16666666666666666,
            "value": {
              "__uuid__": "2d648006-20a6-429c-9eef-a4b47dad022a"
            }
          },
          {
            "frame": 0.20833333333333334,
            "value": {
              "__uuid__": "0ea56e17-771f-47cb-8bb8-eb3bb5fe4b11"
            }
          },
          {
            "frame": 0.25,
            "value": {
              "__uuid__": "5ad76f8d-cdbf-4a0e-b723-0d49f8d2c589"
            }
          },
          {
            "frame": 0.2916666666666667,
            "value": {
              "__uuid__": "4006d827-43b2-4cc8-95d8-53e72f7c06cf"
            }
          },
          {
            "frame": 0.3333333333333333,
            "value": {
              "__uuid__": "97766da0-d3b1-41c3-b113-26de19b80a86"
            }
          },
          {
            "frame": 0.375,
            "value": {
              "__uuid__": "d4596761-8bcf-4c75-971d-d255a0752f7c"
            }
          },
          {
            "frame": 0.4166666666666667,
            "value": {
              "__uuid__": "4c6588e4-2038-4644-97b0-bbf37fc50992"
            }
          },
          {
            "frame": 0.4583333333333333,
            "value": {
              "__uuid__": "cc25bbb8-4ba0-44c9-8abc-d771cfa6f428"
            }
          },
          {
            "frame": 0.5,
            "value": {
              "__uuid__": "929d156d-9bd7-47c0-aa9d-2fbbb9d22402"
            }
          },
          {
            "frame": 0.5416666666666666,
            "value": {
              "__uuid__": "36103698-4a0d-486b-b18b-02fcc01e526e"
            }
          },
          {
            "frame": 0.5833333333333334,
            "value": {
              "__uuid__": "663e2dfe-1b15-483b-8bcd-750a2ab1b1ff"
            }
          },
          {
            "frame": 0.625,
            "value": {
              "__uuid__": "14d22cc5-31c1-4409-9289-db6012d38834"
            }
          },
          {
            "frame": 0.6666666666666666,
            "value": {
              "__uuid__": "1c167bcd-7ba0-488f-a772-30260256c367"
            }
          },
          {
            "frame": 0.7083333333333334,
            "value": {
              "__uuid__": "4e296c2e-9f56-49a0-9a4d-73a0d807d7a9"
            }
          },
          {
            "frame": 0.7916666666666666,
            "value": {
              "__uuid__": "dd0133ce-21ca-405a-8e68-5894ed7b4d40"
            }
          },
          {
            "frame": 0.8333333333333334,
            "value": {
              "__uuid__": "321acae1-5508-4c71-b322-66272b9536ef"
            }
          },
          {
            "frame": 0.875,
            "value": {
              "__uuid__": "71a84b5f-bf8e-4b3b-a585-8984a7d357c6"
            }
          },
          {
            "frame": 0.9166666666666666,
            "value": {
              "__uuid__": "c8b321c1-35de-4a26-b727-8941cd5929ca"
            }
          },
          {
            "frame": 0.9583333333333334,
            "value": {
              "__uuid__": "1e151a4c-786f-4e66-ad99-8b523900220f"
            }
          },
          {
            "frame": 1,
            "value": {
              "__uuid__": "bea660b9-18eb-4d19-98d0-28654c8ae7d2"
            }
          },
          {
            "frame": 1.0416666666666667,
            "value": {
              "__uuid__": "e0faa826-eaaa-4dbb-b370-4604705500ba"
            }
          },
          {
            "frame": 1.0833333333333333,
            "value": {
              "__uuid__": "332f7956-d7bb-4306-9ce1-4f9246dd16bd"
            }
          },
          {
            "frame": 1.125,
            "value": {
              "__uuid__": "75462822-32f1-426f-9398-c1bc8bcf42bc"
            }
          },
          {
            "frame": 1.1666666666666667,
            "value": {
              "__uuid__": "af0d224a-a333-4831-8ee6-eeaed9fdb27c"
            }
          },
          {
            "frame": 1.2083333333333333,
            "value": {
              "__uuid__": "c8443a9a-08d9-4819-88f6-0540c1eff988"
            }
          },
          {
            "frame": 1.25,
            "value": {
              "__uuid__": "3d3f9ec8-1320-47c8-a728-3684968bd076"
            }
          },
          {
            "frame": 1.2916666666666667,
            "value": {
              "__uuid__": "503773a2-4bfb-4810-b171-c06907c93589"
            }
          },
          {
            "frame": 1.3333333333333333,
            "value": {
              "__uuid__": "386d2e1c-79c9-498a-8f30-fd53756f0d99"
            }
          }
        ]
      }
    }
  },
  "events": []
}